Relational Data in R
…
Grouping data in R with dplyr is very simple.

You use the group_by function to create implicit groupings within your data.

Lets first look at grouping our Plot data by the famrmers who tend them.

We simply provide the name of the variable we want to use to define our groups.

Plot_data <- Plot_data%>%
  group_by(farmer_id)

Plot_data

## # A tibble: 50 x 5
## # Groups:   farmer_id [19]
##    plot_id farmer_id  size fertiliser_1 fertiliser_2
##      <int>     <int> <dbl>        <int>        <dbl>
##  1       1        10   3.1            4            2
##  2       2        17   4.1            2            1
##  3       3        12   2.9            2            3
##  4       4         7   2.5            4            3
##  5       5         8   3.5            2            1
##  6       6         1   1.9            4            1
##  7       7        20   2.1            1            1
##  8       8         3   3.9            1            1
##  9       9        11   2.3            4            2
## 10      10         1   3.3            4            3
## # ... with 40 more rows
…
